Project 1: Wrangling, Exploration, Visualization
…
## [1] 7713

anti_join(project1, spotify)

## # A tibble: 0 x 18
## #  with 18 variables: endTime <dttm>, artistName <chr>, trackName <chr>,
## #   msPlayed <dbl>, Popularity <dbl>, danceability <dbl>, energy <dbl>,
## #   key <dbl>, loudness <dbl>, mode <dbl>, speechiness <dbl>,
## #   acousticness <dbl>, instrumentalness <dbl>, liveness <dbl>, valence <dbl>,
## #   tempo <dbl>, `duration_in min/ms` <dbl>, time_signature <dbl>

anti_join(project1, genre)

## # A tibble: 9,296 x 18
##    endTime             artistName trackName msPlayed Popularity danceability
##    <dttm>              <chr>      <chr>        <dbl>      <dbl>        <dbl>
##  1 2020-07-10 23:55:00 Margaux B Northern   187326         NA           NA
##  2 2020-10-26 15:16:00 Peter, Pa Leaving    207240         NA           NA
##  3 2020-10-26 15:52:00 Billy Joel New York   362400         NA           NA
##  4 2020-10-26 15:56:00 Joni Mitc A Case o   263480         NA           NA
##  5 2020-10-26 15:58:00 Simon & G April Co   109013         NA           NA
##  6 2020-10-26 16:03:00 The Beatl I Will -   105933         NA           NA
##  7 2020-10-26 16:07:00 Little Ri Reminisc   253080         NA           NA
##  8 2020-10-26 16:11:00 Carole Ki It's Too   233173         NA           NA
##  9 2020-10-26 16:22:00 The Velve Oh! Swee   445186         NA           NA
## 10 2020-10-26 16:28:00 Ella Fitz Autumn I   356626         NA           NA
## #  with 9,286 more rows, and 12 more variables: energy <dbl>, key <dbl>,
## #   loudness <dbl>, mode <dbl>, speechiness <dbl>, acousticness <dbl>,
## #   instrumentalness <dbl>, liveness <dbl>, valence <dbl>, tempo <dbl>,
## #   `duration_in min/ms` <dbl>, time_signature <dbl>
…
